<?xml version="1.0" encoding="UTF-8" standalone="no"?>
<svg
   xmlns:dc="http://purl.org/dc/elements/1.1/"
   xmlns:cc="http://creativecommons.org/ns#"
   xmlns:rdf="http://www.w3.org/1999/02/22-rdf-syntax-ns#"
   xmlns:svg="http://www.w3.org/2000/svg"
   xmlns="http://www.w3.org/2000/svg"
   xmlns:sodipodi="http://sodipodi.sourceforge.net/DTD/sodipodi-0.dtd"
   xmlns:inkscape="http://www.inkscape.org/namespaces/inkscape"
   viewBox="0 0 16 16"
   id="svg2"
   version="1.1"
   inkscape:version="0.91 r13725"
   sodipodi:docname="go-top-symbolic.svg">
  <metadata
     id="metadata14">
    <rdf:RDF>
      <cc:Work
         rdf:about="">
        <dc:format>image/svg+xml</dc:format>
        <dc:type
           rdf:resource="http://purl.org/dc/dcmitype/StillImage" />
      </cc:Work>
    </rdf:RDF>
  </metadata>
  <defs
     id="defs12" />
  <sodipodi:namedview
     pagecolor="#ffffff"
     bordercolor="#666666"
     borderopacity="1"
     objecttolerance="10"
     gridtolerance="10"
     guidetolerance="10"
     inkscape:pageopacity="0"
     inkscape:pageshadow="2"
     inkscape:window-width="1600"
     inkscape:window-height="843"
     id="namedview10"
     showgrid="false"
     inkscape:zoom="14.75"
     inkscape:cx="-17.084746"
     inkscape:cy="8"
     inkscape:window-x="0"
     inkscape:window-y="27"
     inkscape:window-maximized="1"
     inkscape:current-layer="svg2" />
  <g
     transform="translate(-221.0002 -747)"
     style="fill:#f1f8e9;color:#bebebe;fill-opacity:1"
     id="g4">
    <rect
       width="2"
       x="-751.98"
       y="-234.97"
       rx="0"
       height="11.968"
       transform="matrix(0 -1 -1 0 0 0)"
       id="rect6"
       style="fill:#f1f8e9;fill-opacity:1" />
    <path
       d="m 235.01 760 0 -1 c -0.001 -0.011 0.001 -0.021 0 -0.031 -0.011 -0.255 -0.128 -0.51 -0.313 -0.687 l -5.719 -6.298 -5.719 6.298 c -0.188 0.188 -0.281 0.453 -0.281 0.719 l 0 1 1 0 c 0.265 0 0.531 -0.093 0.719 -0.281 l 4.281 -4.829 4.281 4.829 c 0.195 0.211 0.469 0.303 0.75 0.281 z"
       id="path8"
       style="fill:#f1f8e9;fill-opacity:1" />
  </g>
</svg>
