<?xml version="1.0" encoding="UTF-8" standalone="no"?>
<svg
   xmlns:dc="http://purl.org/dc/elements/1.1/"
   xmlns:cc="http://creativecommons.org/ns#"
   xmlns:rdf="http://www.w3.org/1999/02/22-rdf-syntax-ns#"
   xmlns:svg="http://www.w3.org/2000/svg"
   xmlns="http://www.w3.org/2000/svg"
   xmlns:sodipodi="http://sodipodi.sourceforge.net/DTD/sodipodi-0.dtd"
   xmlns:inkscape="http://www.inkscape.org/namespaces/inkscape"
   viewBox="0 0 16 16"
   id="svg2"
   version="1.1"
   inkscape:version="0.91 r13725"
   sodipodi:docname="object-flip-horizontal-symbolic.svg">
  <metadata
     id="metadata18">
    <rdf:RDF>
      <cc:Work
         rdf:about="">
        <dc:format>image/svg+xml</dc:format>
        <dc:type
           rdf:resource="http://purl.org/dc/dcmitype/StillImage" />
      </cc:Work>
    </rdf:RDF>
  </metadata>
  <defs
     id="defs16" />
  <sodipodi:namedview
     pagecolor="#ffffff"
     bordercolor="#666666"
     borderopacity="1"
     objecttolerance="10"
     gridtolerance="10"
     guidetolerance="10"
     inkscape:pageopacity="0"
     inkscape:pageshadow="2"
     inkscape:window-width="1600"
     inkscape:window-height="843"
     id="namedview14"
     showgrid="false"
     inkscape:zoom="14.75"
     inkscape:cx="8"
     inkscape:cy="8"
     inkscape:window-x="0"
     inkscape:window-y="27"
     inkscape:window-maximized="1"
     inkscape:current-layer="svg2" />
  <g
     transform="translate(-241.00015 -667)"
     style="fill:#f1f8e9;fill-opacity:1"
     id="g4">
    <path
       d="m 244 674 0 2 10 0 0 -2 -10 0 z"
       style="color:#000;fill:#f1f8e9;fill-opacity:1"
       id="path6" />
    <g
       style="color:#bebebe;fill:#f1f8e9;fill-opacity:1"
       id="g8">
      <path
         d="m 251 671 0 1 c 0 0.257 0.13 0.528 0.313 0.719 l 2.281 2.281 -2.281 2.281 c -0.183 0.19 -0.313 0.462 -0.313 0.719 l 0 1 1 0 c 0.309 0 0.552 -0.09 0.75 -0.281 l 3.656 -3.719 -3.656 -3.719 c -0.198 -0.191 -0.441 -0.281 -0.75 -0.281 z"
         id="path10"
         style="fill:#f1f8e9;fill-opacity:1" />
      <path
         d="m 247 671 0 1 c 0 0.257 -0.13 0.528 -0.313 0.719 l -2.281 2.281 l 2.281 2.281 c 0.183 0.19 0.313 0.462 0.313 0.719 l 0 1 -1 0 c -0.309 0 -0.552 -0.09 -0.75 -0.281 l -3.656 -3.719 3.656 -3.719 c 0.198 -0.191 0.441 -0.281 0.75 -0.281 z"
         id="path12"
         style="fill:#f1f8e9;fill-opacity:1" />
    </g>
  </g>
</svg>
